A Complex Scraping Project • scrapeR
…
run(nrevss_spider_2)
#> [[1]]
#> # A tibble: 52 × 4
#>       `` RepWeekDate RegID `Antigen Detection`
#>    <int> <chr>       <int>               <dbl>
#>  1     1 08/28/21        1                2.38
#>  2     2 09/04/21        1                2.38
#>  3     3 09/11/21        1                0   
#>  4     4 09/18/21        1                0   
#>  5     5 09/25/21        1                0   
#>  6     6 10/02/21        1                0   
#>  7     7 10/09/21        1                0   
#>  8     8 10/16/21        1                0   
#>  9     9 10/23/21        1                0   
#> 10    10 10/30/21        1                2.56
#> # … with 42 more rows
#> 
#> [[2]]
#> # A tibble: 52 × 4
#>       `` RepWeekDate RegID `Antigen Detection`
#>    <int> <chr>       <int>               <dbl>
#>  1     1 08/28/21        2               2.61 
#>  2     2 09/04/21        2               3.44 
#>  3     3 09/11/21        2               2.43 
#>  4     4 09/18/21        2               1.53 
#>  5     5 09/25/21        2               0.694
#>  6     6 10/02/21        2               1.04 
#>  7     7 10/09/21        2               1.04 
#>  8     8 10/16/21        2               1.04 
#>  9     9 10/23/21        2               0    
#> 10    10 10/30/21        2               0    
#> # … with 42 more rows
#> 
#> [[3]]
#> # A tibble: 52 × 4
#>       `` RepWeekDate RegID `Antigen Detection`
#>    <int> <chr>       <int>               <dbl>
#>  1     1 08/28/21        3               5.29 
#>  2     2 09/04/21        3               5.77 
#>  3     3 09/11/21        3               1.22 
#>  4     4 09/18/21        3               0.483
#>  5     5 09/25/21        3               0.556
#>  6     6 10/02/21        3               0.556
#>  7     7 10/09/21        3               1.37 
#>  8     8 10/16/21        3               1.26 
#>  9     9 10/23/21        3               1.91 
#> 10    10 10/30/21        3               1.10 
#> # … with 42 more rows
#> 
#> [[4]]
#> # A tibble: 52 × 4
#>       `` RepWeekDate RegID `Antigen Detection`
#>    <int> <chr>       <int>               <dbl>
#>  1     1 08/28/21        4                2.08
#>  2     2 09/04/21        4                0   
#>  3     3 09/11/21        4                0   
#>  4     4 09/18/21        4               11.1 
#>  5     5 09/25/21        4               11.1 
#>  6     6 10/02/21        4               11.1 
#>  7     7 10/09/21        4                0   
#>  8     8 10/16/21        4                0   
#>  9     9 10/23/21        4                3.70
#> 10    10 10/30/21        4                3.70
#> # … with 42 more rows
As you can see, the spider has returned a list of all scraped tables.
The parser steps that we have added with the
add_parser function are designed to run on each item of the
queue individually, similarly to when using the sapply
function in base R. We now need to combine these tables into a single
table. To do this, we use a transformer the the
add_transformer function.

nrevss_spider_2 %>%
    add_transformer(
        ~ do.call(rbind, .x)
    ) -> nrevss_with_transformer

run(nrevss_with_transformer)
#> # A tibble: 208 × 4
#>       `` RepWeekDate RegID `Antigen Detection`
#>    <int> <chr>       <int>               <dbl>
#>  1     1 08/28/21        1                2.38
#>  2     2 09/04/21        1                2.38
#>  3     3 09/11/21        1                0   
#>  4     4 09/18/21        1                0   
#>  5     5 09/25/21        1                0   
#>  6     6 10/02/21        1                0   
#>  7     7 10/09/21        1                0   
#>  8     8 10/16/21        1                0   
#>  9     9 10/23/21        1                0   
#> 10    10 10/30/21        1                2.56
#> # … with 198 more rows
…
run(final_nrevss_spider)
#> # A tibble: 208 × 4
#>        x rep_week_date reg_id antigen_detection
#>    <int> <chr>          <int>             <dbl>
#>  1     1 08/28/21           1              2.38
#>  2     2 09/04/21           1              2.38
#>  3     3 09/11/21           1              0   
#>  4     4 09/18/21           1              0   
#>  5     5 09/25/21           1              0   
#>  6     6 10/02/21           1              0   
#>  7     7 10/09/21           1              0   
#>  8     8 10/16/21           1              0   
#>  9     9 10/23/21           1              0   
#> 10    10 10/30/21           1              2.56
#> # … with 198 more rows
…
